…
calling the function with city name New York

    near_city_100km("New York")

    ## # A tibble: 38 × 12
    ##    id       name     year month   day status latitude longitude windspeed isLan…¹ isHur…² dista…³
    ##    <chr>    <chr>   <dbl> <dbl> <dbl> <fct>     <dbl>     <dbl>     <dbl> <lgl>   <lgl>     <dbl>
    ##  1 AL071866 UNNAMED  1866    10 30.5  EX         41.3     -74          50 FALSE   FALSE     70.3 
    ##  2 AL051872 UNNAMED  1872    10 26.8  TS         40.6     -73.8        40 FALSE   FALSE     14.2 
    ##  3 AL061874 UNNAMED  1874     9 30    TS         40.9     -73.6        60 FALSE   FALSE     38.4 
    ##  4 AL041882 UNNAMED  1882     9 24.2  TS         40.7     -72.8        40 TRUE    FALSE     96.3 
    ##  5 AL051888 UNNAMED  1888     9 12    EX         40.6     -73.3        35 FALSE   FALSE     54.6 
    ##  6 AL041893 UNNAMED  1893     8 24.5  HU         40.7     -73.9        75 TRUE    TRUE       4.75
    ##  7 AL051894 UNNAMED  1894    10 10.6  HU         40.7     -72.9        75 TRUE    TRUE      87.9 
    ##  8 AL061900 UNNAMED  1900    10 14.5  EX         40.3     -73.7        35 FALSE   FALSE     45.9 
    ##  9 AL041903 UNNAMED  1903     9 16.8  TS         40.3     -75          55 FALSE   FALSE     98.8 
    ## 10 AL011915 UNNAMED  1915     8  4.75 EX         40.9     -74.3        50 FALSE   FALSE     39.7 
    ## # … with 28 more rows, and abbreviated variable names ¹​isLandfall, ²​isHurricane, ³​distance
    ## # ℹ Use `print(n = ...)` to see more rows
…
